{
  "minRadius": 0.1,
  "maxTrial": 10,
  "minTrial": 2,
  "Nsample": 2000,
  "obsN": 10,
  "saveFreq": 100,
  "xlb": [-10, -10, -10, -0, -0, -0, 0, 0, 0, 0, 0, 0],
  "xub": [10, 10, 10, 0, 0, 0, 0, 0, 0, 0, 0, 0],
  "obslb": [-10, -10, -10, 1],
  "obsub": [10, 10, 10, 5],
  "mdlPath": "/home/motion/GAO/ExplicitMPC/QuadCopter/Script/models/exportModel.json"
}
