{
	"N": 20,
	"tf": [0.001, 10],
	"tfweight": 10,
	"dimx": 12,
	"dimu": 4,
	"ulb": [-1.226, -1.226, -1.226, -1.226],
	"uub": [2.774, 2.774, 2.774, 2.774],
	"ubase": [1.226, 1.226, 1.226, 1.226],
	"F": [100, 100, 100, 100, 100, 100, 10, 10, 10, 10, 10, 10],
	"Q": [0.0, 0.0 ,0.0, 1.0, 1.0, 1.0, 0.1, 0.1, 0.1, 1.0, 1.0, 1.0],
	"R": [1, 1, 1, 1],
	"xf": [0,0,0,0,0,0,0,0,0,0,0,0],
	"x0": [8,8,8,0,0,0,0,0,0,0,0,0],
	"fixxf": 1,
    "xlb":[-1e10, -1e10, -1e10, -3, -3, -3, -10, -10, -10, -5, -5, -5], 
    "xub":[1e10, 1e10, 1e10, 3, 3, 3, 10, 10, 10, 5, 5, 5],
    "center": [
        [5, 5, 4.5]
    ],
    "radius":[
        3
    ],
    "Guesss":[

    ]
}
